sql – Machine Learning Notes
…
It is a little clunky but the tl;dr is that we basically have two FROM statements so if we wanted all penguins between the minimum and the average we could do

R
SQL

palmerpenguins::penguins |>
    filter(between(body_mass_g, left = min(body_mass_g, na.rm = TRUE), right = mean(body_mass_g, na.rm = TRUE)))

# A tibble: 193 × 8
   species island    bill_length_mm bill_depth_mm flipper_length_mm body_mass_g
   <fct>   <fct>              <dbl>         <dbl>             <int>       <int>
 1 Adelie  Torgersen           39.1          18.7               181        3750
 2 Adelie  Torgersen           39.5          17.4               186        3800
 3 Adelie  Torgersen           40.3          18                 195        3250
 4 Adelie  Torgersen           36.7          19.3               193        3450
 5 Adelie  Torgersen           39.3          20.6               190        3650
 6 Adelie  Torgersen           38.9          17.8               181        3625
 7 Adelie  Torgersen           34.1          18.1               193        3475
 8 Adelie  Torgersen           37.8          17.1               186        3300
 9 Adelie  Torgersen           37.8          17.3               180        3700
10 Adelie  Torgersen           41.1          17.6               182        3200
# ℹ 183 more rows
# ℹ 2 more variables: sex <fct>, year <int>
…
Unnest/a brief aside

So one thing that you come across from time to time in R and python data wrangling are list columns. These happen for a variety of reasons and are pretty innocuous to handle.

list_starwars = starwars |>
    select(name, films)

 list_starwars |>
    unnest_longer(films)

# A tibble: 173 × 2
   name           films                  
   <chr>          <chr>                  
 1 Luke Skywalker A New Hope             
 2 Luke Skywalker The Empire Strikes Back
 3 Luke Skywalker Return of the Jedi     
 4 Luke Skywalker Revenge of the Sith    
 5 Luke Skywalker The Force Awakens      
 6 C-3PO          A New Hope             
 7 C-3PO          The Empire Strikes Back
 8 C-3PO          Return of the Jedi     
 9 C-3PO          The Phantom Menace     
10 C-3PO          Attack of the Clones   
# ℹ 163 more rows
…
Window Functions

Window functions are kid of just grouped mutates in dplyr. We define the windows using OVER and PARTITION BY. We are diving up an existing table into smaller windows that that let us run various aggregation functions or define groups. There are three parts to a window function

OVER which tells SQL we are going to do a window function

PARTION BY which tells SQL what to do the grouping by

Then our operation So effectively we can think of it as this

penguins |>
    mutate(avg_pengs = mean(body_mass_g, na.rm = TRUE), .by = species)

# A tibble: 344 × 9
   species island    bill_length_mm bill_depth_mm flipper_length_mm body_mass_g
   <fct>   <fct>              <dbl>         <dbl>             <int>       <int>
 1 Adelie  Torgersen           39.1          18.7               181        3750
 2 Adelie  Torgersen           39.5          17.4               186        3800
 3 Adelie  Torgersen           40.3          18                 195        3250
 4 Adelie  Torgersen           NA            NA                  NA          NA
 5 Adelie  Torgersen           36.7          19.3               193        3450
 6 Adelie  Torgersen           39.3          20.6               190        3650
 7 Adelie  Torgersen           38.9          17.8               181        3625
 8 Adelie  Torgersen           39.2          19.6               195        4675
 9 Adelie  Torgersen           34.1          18.1               193        3475
10 Adelie  Torgersen           42            20.2               190        4250
# ℹ 334 more rows
# ℹ 3 more variables: sex <fct>, year <int>, avg_pengs <dbl>
…
